1 10 20
100 200 125
201 210 89
900 1000 174
45 1468 182
1468 45 182
1 500000 449
200000 700000 509
999999 777777 525
134 198459 383
500000 999999 525
1 999999 525
1098 4 179
2987 9871 262
97924 2879 351
19278 19879 274
75 76 23
75 75 15
76 76 23
987 123 179
18736 21938 274
12398 213 268
829374 1234 509
100 2001 182
200 900 179
1 100 119
900 1000 174
1 1000 179
2187 2137 170
824397 982341 525
98724 162876 383
21 213874 383
987 1237 182
8276 12746 268
12874 237 268
284 12 128
23 45879 324
123 2 119
5 92873 351
29 1 112
8 12 20
800 890 179
287 123 128
12984 238 268
2739 287 209
12436 23987 282
237 23 128
3248 2387 217
236 21746 279
126 87 119
86 218 125
86 32 116
68 1276 182
26 86 116
124 876 179
214 486 144
86 86 31
25 1268 182
12548 5128 268
2485 8152 262
67 435 144
13 512 144
9 13 20
96 85 106
214 1248 182
269 246 123
2946 21946 279
128 286 128
2496 285 209
213 246 128
123 286 128
136 2486 209
862 246 171
216 586 144
297 245 123
974 649 179
4397 9875 262
98745 7834 351
97325 87 351
43297 435297 449
246817 327498 407
947899 324876 525
758987 987345 525
971927 82174 525
126 987591 525
217486 127699 386
97624 958121 525
978241 871297 507
987124 376987 525
817294 291982 509
287684 987212 525
192486 124987 383
19278 438560 449
187249 128761 383
192797 214866 373
817624 192437 509
218683 876181 525
172491 123744 383
126481 872341 525
129744 876321 525
345972 435987 449
234579 874362 525
237861 876234 525
264338 836775 509
27237 741610 509
797486 8999 509
688332 161413 509
187127 888291 525
473469 301544 449
503958 410357 444
219577 865277 525
613313 211013 470
950915 752082 525
987083 570669 525
463528 886939 525
640506 187023 509
615360 807268 509
119780 695283 509
331574 330201 322
8212 594264 470
881874 505354 525
762593 350731 509
170950 570706 470
